<svg xmlns="http://www.w3.org/2000/svg" xmlns:xlink="http://www.w3.org/1999/xlink" width="77" height="74" viewBox="0 0 77 74">
  <defs>
    <clipPath id="clip-Donate_Floating_button_1">
      <rect width="77" height="74"/>
    </clipPath>
  </defs>
  <g id="Donate_Floating_button_1" data-name="Donate Floating button – 1" clip-path="url(#clip-Donate_Floating_button_1)">
    <circle id="Ellipse_44" data-name="Ellipse 44" cx="35" cy="35" r="35" transform="translate(6 3)" fill="#225a93"/>
    <circle id="Ellipse_43" data-name="Ellipse 43" cx="35" cy="35" r="35" transform="translate(2 1)" fill="#bf1e2d"/>
    <g id="Group_12" data-name="Group 12" transform="translate(24 14.213)">
      <path id="Path_6" data-name="Path 6" d="M10.1,0H.24V10.152L15.061,25.071H25.138v-10.2ZM23.573,23.5H15.648L1.808,9.463v-7.9H9.6L23.573,15.648Z" transform="translate(-0.15)" fill="#fff"/>
      <path id="Path_9" data-name="Path 9" d="M10.1,0H.24V10.152L15.061,25.071H25.138v-10.2ZM23.573,23.5H15.648L1.808,9.463v-7.9H9.6L23.573,15.648Z" transform="translate(-0.15)" fill="#fff"/>
      <path id="Path_7" data-name="Path 7" d="M25.078,10.088V.23H14.926L0,15.051V25.128H10.212ZM1.583,23.563V15.638L15.615,1.794h7.9V9.588L9.43,23.563Z" transform="translate(0 -0.144)" fill="#fff"/>
      <path id="Path_8" data-name="Path 8" d="M11.33,27.857H27.873V11.19H11.33Zm15.291-1.278H12.6V12.468h14.02Z" transform="translate(-7.07 -6.983)" fill="#fff"/>
    </g>
    <g id="Group_1598" data-name="Group 1598" transform="translate(-857.154 -329.681)">
      <path id="Path_25971" data-name="Path 25971" d="M885.085,379.1a2.5,2.5,0,0,0-1.007-1.022,3.072,3.072,0,0,0-1.495-.35,3.272,3.272,0,0,0-1.677.426,2.959,2.959,0,0,0-1.144,1.22,4.311,4.311,0,0,0,.008,3.691,2.955,2.955,0,0,0,1.167,1.22,3.437,3.437,0,0,0,1.738.427,3.013,3.013,0,0,0,2-.648,3.1,3.1,0,0,0,1.022-1.807h-3.66v-1.632H887.8v1.861a4.983,4.983,0,0,1-.915,2.058,5.152,5.152,0,0,1-1.807,1.518,5.316,5.316,0,0,1-2.478.572,5.611,5.611,0,0,1-2.784-.694,5.044,5.044,0,0,1-1.951-1.929,5.915,5.915,0,0,1,0-5.62,5.03,5.03,0,0,1,1.951-1.937,5.944,5.944,0,0,1,5.9.183,4.476,4.476,0,0,1,1.83,2.463Z" fill="#fff"/>
      <path id="Path_25972" data-name="Path 25972" d="M889.53,376.729a1.253,1.253,0,0,1,0-1.784,1.408,1.408,0,0,1,1.876,0,1.251,1.251,0,0,1,0,1.784,1.4,1.4,0,0,1-1.876,0Zm1.991,1.366v8.448h-2.136V378.1Z" fill="#fff"/>
      <path id="Path_25973" data-name="Path 25973" d="M897.148,384.576l2.135-6.481h2.273l-3.127,8.448h-2.593l-3.111-8.448h2.288Z" fill="#fff"/>
      <path id="Path_25974" data-name="Path 25974" d="M910.554,382.959h-6.177a2.1,2.1,0,0,0,.641,1.434,1.972,1.972,0,0,0,1.387.519,1.744,1.744,0,0,0,1.693-1.022h2.3A3.855,3.855,0,0,1,909,385.9a4.1,4.1,0,0,1-2.547.785,4.4,4.4,0,0,1-2.188-.542,3.8,3.8,0,0,1-1.51-1.533,4.692,4.692,0,0,1-.542-2.287,4.784,4.784,0,0,1,.534-2.3,3.724,3.724,0,0,1,1.495-1.525,4.8,4.8,0,0,1,4.369-.015,3.644,3.644,0,0,1,1.479,1.471,4.456,4.456,0,0,1,.527,2.189A5.11,5.11,0,0,1,910.554,382.959Zm-2.151-1.433a1.69,1.69,0,0,0-.6-1.319,2.1,2.1,0,0,0-1.418-.5,1.937,1.937,0,0,0-1.334.48,2.115,2.115,0,0,0-.664,1.335Z" fill="#fff"/>
    </g>
  </g>
</svg>
